{
    "@odata.type": "#EthernetInterface.v1_7_0.EthernetInterface",
    "Id": "1",
    "Name": "Ethernet Interface",
    "Description": "System NIC 1",
    "Status": {
        "State": "Enabled",
        "Health": "OK"
    },
    "LinkStatus": "LinkUp",
    "PermanentMACAddress": "08:00:27:91:bb:ce",
    "MACAddress": "08:00:27:91:bb:ce",
    "IPv4Addresses": [
        {
            "Address": "192.168.1.100",
            "SubnetMask": "255.255.252.0",
            "AddressOrigin": "Static",
            "Gateway": "192.168.1.1"
        }
    ],
    "Oem": {},
    "@odata.id": "/redfish/v1/Systems/Simple/EthernetInterfaces/1",
    "@Redfish.Copyright": "Copyright 2015-2024 SNIA. All rights reserved."
}