{
    "@odata.type": "#FileShare.v1_2_0.FileShare",
    "Id": "MyShare",
    "Name": "MyShare",
    "Description": "My File Share.",
    "FileSharePath": "/srv/nfs_share",
    "FileSharingProtocols": [
        "NFSv4_0"
    ],
    "Status": {
        "State": "Enabled",
        "Health": "OK",
        "HealthRollup": "OK"
    },
    "DefaultAccessCapabilities": [
        "Read",
        "Write",
        "Execute"
    ],
    "ExecuteSupport": true,
    "RootAccess": true,
    "CASupported": true,
    "EthernetInterfaces": {
        "@odata.id": "/redfish/v1/Systems/FileServer/EthernetInterfaces/1"
    },
    "Links": {
        "FileSystem": {
            "@odata.id": "/redfish/v1/StorageServices/FileService/FileSystems/FS1"
        }
    },
    "@odata.id": "/redfish/v1/StorageServices/FileService/FileSystems/FS1/ExportedFileShares/MyShare",
    "@Redfish.Copyright": "Copyright 2015-2024 SNIA. All rights reserved."
}
